{
  "photos":{
     "page":1,
     "pages":62,
     "perpage":25,
     "total":"1532",
     "photo":[
        {
           "id":"51099558659",
           "owner":"129426516@N03",
           "secret":"273aa247ce",
           "server":"65535",
           "farm":66,
           "title":"PXL_20210403_002910022",
           "ispublic":1,
           "isfriend":0,
           "isfamily":0,
           "description":{
              "_content":"Dinner picnic in the yard!"
           },
           "datetaken":"2021-04-02 18:29:10",
           "datetakengranularity":"0",
           "datetakenunknown":"0",
           "tags":"tyler brokk odin",
           "media":"photo",
           "media_status":"ready",
           "url_n":"https:\/\/live.staticflickr.com\/65535\/51099558659_273aa247ce_n.jpg",
           "height_n":320,
           "width_n":240,
           "url_m":"https:\/\/live.staticflickr.com\/65535\/51099558659_273aa247ce.jpg",
           "height_m":500,
           "width_m":375,
           "url_o":"https:\/\/live.staticflickr.com\/65535\/51099558659_88a3e61077_o.jpg",
           "height_o":3264,
           "width_o":2448,
           "url_l":"https:\/\/live.staticflickr.com\/65535\/51099558659_273aa247ce_b.jpg",
           "height_l":1024,
           "width_l":768
        },
        {
           "id":"51100284250",
           "owner":"129426516@N03",
           "secret":"cdcdba1892",
           "server":"65535",
           "farm":66,
           "title":"PXL_20210328_232618747.PORTRAIT",
           "ispublic":1,
           "isfriend":0,
           "isfamily":0,
           "description":{
              "_content":"Ready to ride"
           },
           "datetaken":"2021-03-28 17:26:18",
           "datetakengranularity":"0",
           "datetakenunknown":"0",
           "tags":"brokk",
           "media":"photo",
           "media_status":"ready",
           "url_n":"https:\/\/live.staticflickr.com\/65535\/51100284250_cdcdba1892_n.jpg",
           "height_n":320,
           "width_n":240,
           "url_m":"https:\/\/live.staticflickr.com\/65535\/51100284250_cdcdba1892.jpg",
           "height_m":500,
           "width_m":375,
           "url_o":"https:\/\/live.staticflickr.com\/65535\/51100284250_184149e20c_o.jpg",
           "height_o":3024,
           "width_o":4032,
           "url_l":"https:\/\/live.staticflickr.com\/65535\/51100284250_cdcdba1892_b.jpg",
           "height_l":1024,
           "width_l":768
        },
        {
           "id":"51099572352",
           "owner":"129426516@N03",
           "secret":"4f65750bcc",
           "server":"65535",
           "farm":66,
           "title":"PXL_20210325_011319665.PORTRAIT",
           "ispublic":1,
           "isfriend":0,
           "isfamily":0,
           "description":{
              "_content":"Homemade crowns."
           },
           "datetaken":"2021-03-24 19:13:19",
           "datetakengranularity":"0",
           "datetakenunknown":"0",
           "tags":"lyssa brokk",
           "media":"photo",
           "media_status":"ready",
           "url_n":"https:\/\/live.staticflickr.com\/65535\/51099572352_4f65750bcc_n.jpg",
           "height_n":320,
           "width_n":240,
           "url_m":"https:\/\/live.staticflickr.com\/65535\/51099572352_4f65750bcc.jpg",
           "height_m":500,
           "width_m":375,
           "url_o":"https:\/\/live.staticflickr.com\/65535\/51099572352_f8ff53e372_o.jpg",
           "height_o":3024,
           "width_o":4032,
           "url_l":"https:\/\/live.staticflickr.com\/65535\/51099572352_4f65750bcc_b.jpg",
           "height_l":1024,
           "width_l":768
        },
        {
           "id":"51100284360",
           "owner":"129426516@N03",
           "secret":"3e43f84b11",
           "server":"65535",
           "farm":66,
           "title":"PXL_20210323_164239280.PORTRAIT",
           "ispublic":1,
           "isfriend":0,
           "isfamily":0,
           "description":{
              "_content":"Yes, he puts the straw in his tooth gap"
           },
           "datetaken":"2021-03-23 10:42:39",
           "datetakengranularity":"0",
           "datetakenunknown":"0",
           "tags":"brokk odin",
           "media":"photo",
           "media_status":"ready",
           "url_n":"https:\/\/live.staticflickr.com\/65535\/51100284360_3e43f84b11_n.jpg",
           "height_n":240,
           "width_n":320,
           "url_m":"https:\/\/live.staticflickr.com\/65535\/51100284360_3e43f84b11.jpg",
           "height_m":375,
           "width_m":500,
           "url_o":"https:\/\/live.staticflickr.com\/65535\/51100284360_becd003782_o.jpg",
           "height_o":3024,
           "width_o":4032,
           "url_l":"https:\/\/live.staticflickr.com\/65535\/51100284360_3e43f84b11_b.jpg",
           "height_l":768,
           "width_l":1024
        },
        {
           "id":"51099477361",
           "owner":"129426516@N03",
           "secret":"0fc79c5371",
           "server":"65535",
           "farm":66,
           "title":"PXL_20210322_175123627",
           "ispublic":1,
           "isfriend":0,
           "isfamily":0,
           "description":{
              "_content":"Poolside vibes"
           },
           "datetaken":"2021-03-22 11:51:23",
           "datetakengranularity":"0",
           "datetakenunknown":"0",
           "tags":"brokk",
           "media":"photo",
           "media_status":"ready",
           "url_n":"https:\/\/live.staticflickr.com\/65535\/51099477361_0fc79c5371_n.jpg",
           "height_n":320,
           "width_n":240,
           "url_m":"https:\/\/live.staticflickr.com\/65535\/51099477361_0fc79c5371.jpg",
           "height_m":500,
           "width_m":375,
           "url_o":"https:\/\/live.staticflickr.com\/65535\/51099477361_03d5faf650_o.jpg",
           "height_o":3024,
           "width_o":4032,
           "url_l":"https:\/\/live.staticflickr.com\/65535\/51099477361_0fc79c5371_b.jpg",
           "height_l":1024,
           "width_l":768
        },
        {
           "id":"51099477411",
           "owner":"129426516@N03",
           "secret":"107ea815a1",
           "server":"65535",
           "farm":66,
           "title":"PXL_20210322_175018762.MP",
           "ispublic":1,
           "isfriend":0,
           "isfamily":0,
           "description":{
              "_content":"I don't think his smile can get bigger than when he's in water."
           },
           "datetaken":"2021-03-22 11:50:18",
           "datetakengranularity":"0",
           "datetakenunknown":"0",
           "tags":"tyler odin",
           "media":"photo",
           "media_status":"ready",
           "url_n":"https:\/\/live.staticflickr.com\/65535\/51099477411_107ea815a1_n.jpg",
           "height_n":240,
           "width_n":320,
           "url_m":"https:\/\/live.staticflickr.com\/65535\/51099477411_107ea815a1.jpg",
           "height_m":375,
           "width_m":500,
           "url_o":"https:\/\/live.staticflickr.com\/65535\/51099477411_0257f782ef_o.jpg",
           "height_o":3024,
           "width_o":4032,
           "url_l":"https:\/\/live.staticflickr.com\/65535\/51099477411_107ea815a1_b.jpg",
           "height_l":768,
           "width_l":1024
        },
        {
           "id":"51100284470",
           "owner":"129426516@N03",
           "secret":"c3c2be9c30",
           "server":"65535",
           "farm":66,
           "title":"PXL_20210322_160306398.MP",
           "ispublic":1,
           "isfriend":0,
           "isfamily":0,
           "description":{
              "_content":"Hot springs fun!"
           },
           "datetaken":"2021-03-22 10:03:06",
           "datetakengranularity":"0",
           "datetakenunknown":"0",
           "tags":"brokk odin tyler",
           "media":"photo",
           "media_status":"ready",
           "url_n":"https:\/\/live.staticflickr.com\/65535\/51100284470_c3c2be9c30_n.jpg",
           "height_n":240,
           "width_n":320,
           "url_m":"https:\/\/live.staticflickr.com\/65535\/51100284470_c3c2be9c30.jpg",
           "height_m":375,
           "width_m":500,
           "url_o":"https:\/\/live.staticflickr.com\/65535\/51100284470_cb329e817a_o.jpg",
           "height_o":3024,
           "width_o":4032,
           "url_l":"https:\/\/live.staticflickr.com\/65535\/51100284470_c3c2be9c30_b.jpg",
           "height_l":768,
           "width_l":1024
        },
        {
           "id":"51099558989",
           "owner":"129426516@N03",
           "secret":"60e9cd93e5",
           "server":"65535",
           "farm":66,
           "title":"PXL_20210321_232946272",
           "ispublic":1,
           "isfriend":0,
           "isfamily":0,
           "description":{
              "_content":"This face, but everyday forever."
           },
           "datetaken":"2021-03-21 17:29:46",
           "datetakengranularity":"0",
           "datetakenunknown":"0",
           "tags":"brokk odin",
           "media":"photo",
           "media_status":"ready",
           "url_n":"https:\/\/live.staticflickr.com\/65535\/51099558989_60e9cd93e5_n.jpg",
           "height_n":240,
           "width_n":320,
           "url_m":"https:\/\/live.staticflickr.com\/65535\/51099558989_60e9cd93e5.jpg",
           "height_m":375,
           "width_m":500,
           "url_o":"https:\/\/live.staticflickr.com\/65535\/51099558989_9627eedfd5_o.jpg",
           "height_o":3024,
           "width_o":4032,
           "url_l":"https:\/\/live.staticflickr.com\/65535\/51099558989_60e9cd93e5_b.jpg",
           "height_l":768,
           "width_l":1024
        },
        {
           "id":"51100284505",
           "owner":"129426516@N03",
           "secret":"4d96416407",
           "server":"65535",
           "farm":66,
           "title":"PXL_20210321_155216690",
           "ispublic":1,
           "isfriend":0,
           "isfamily":0,
           "description":{
              "_content":"Studying hard on the road trip."
           },
           "datetaken":"2021-03-21 09:52:16",
           "datetakengranularity":"0",
           "datetakenunknown":"0",
           "tags":"brokk",
           "media":"photo",
           "media_status":"ready",
           "url_n":"https:\/\/live.staticflickr.com\/65535\/51100284505_4d96416407_n.jpg",
           "height_n":320,
           "width_n":240,
           "url_m":"https:\/\/live.staticflickr.com\/65535\/51100284505_4d96416407.jpg",
           "height_m":500,
           "width_m":375,
           "url_o":"https:\/\/live.staticflickr.com\/65535\/51100284505_6725b288e0_o.jpg",
           "height_o":3024,
           "width_o":4032,
           "url_l":"https:\/\/live.staticflickr.com\/65535\/51100284505_4d96416407_b.jpg",
           "height_l":1024,
           "width_l":768
        },
        {
           "id":"51046761561",
           "owner":"129426516@N03",
           "secret":"45be50ac4c",
           "server":"65535",
           "farm":66,
           "title":"PXL_20210315_194955559.MP",
           "ispublic":1,
           "isfriend":0,
           "isfamily":0,
           "description":{
              "_content":"Nice shades"
           },
           "datetaken":"2021-03-15 13:49:55",
           "datetakengranularity":"0",
           "datetakenunknown":"0",
           "tags":"snow brokk",
           "media":"photo",
           "media_status":"ready",
           "url_n":"https:\/\/live.staticflickr.com\/65535\/51046761561_45be50ac4c_n.jpg",
           "height_n":320,
           "width_n":240,
           "url_m":"https:\/\/live.staticflickr.com\/65535\/51046761561_45be50ac4c.jpg",
           "height_m":500,
           "width_m":375,
           "url_o":"https:\/\/live.staticflickr.com\/65535\/51046761561_4f925d786e_o.jpg",
           "height_o":3024,
           "width_o":4032,
           "url_l":"https:\/\/live.staticflickr.com\/65535\/51046761561_45be50ac4c_b.jpg",
           "height_l":1024,
           "width_l":768
        },
        {
           "id":"51046761501",
           "owner":"129426516@N03",
           "secret":"b2ac821d3e",
           "server":"65535",
           "farm":66,
           "title":"PXL_20210315_193040156",
           "ispublic":1,
           "isfriend":0,
           "isfamily":0,
           "description":{
              "_content":"Family snowman!"
           },
           "datetaken":"2021-03-15 13:30:40",
           "datetakengranularity":"0",
           "datetakenunknown":"0",
           "tags":"brokk odin lyssa tyler snow",
           "media":"photo",
           "media_status":"ready",
           "url_n":"https:\/\/live.staticflickr.com\/65535\/51046761501_b2ac821d3e_n.jpg",
           "height_n":320,
           "width_n":240,
           "url_m":"https:\/\/live.staticflickr.com\/65535\/51046761501_b2ac821d3e.jpg",
           "height_m":500,
           "width_m":375,
           "url_o":"https:\/\/live.staticflickr.com\/65535\/51046761501_b0c856ce5b_o.jpg",
           "height_o":3024,
           "width_o":4032,
           "url_l":"https:\/\/live.staticflickr.com\/65535\/51046761501_b2ac821d3e_b.jpg",
           "height_l":1024,
           "width_l":768
        },
        {
           "id":"51046031458",
           "owner":"129426516@N03",
           "secret":"09b235ab56",
           "server":"65535",
           "farm":66,
           "title":"PXL_20210315_185413181.MP",
           "ispublic":1,
           "isfriend":0,
           "isfamily":0,
           "description":{
              "_content":"Base of the snowman was HUGE"
           },
           "datetaken":"2021-03-15 12:54:13",
           "datetakengranularity":"0",
           "datetakenunknown":"0",
           "tags":"odin snow",
           "media":"photo",
           "media_status":"ready",
           "url_n":"https:\/\/live.staticflickr.com\/65535\/51046031458_09b235ab56_n.jpg",
           "height_n":320,
           "width_n":240,
           "url_m":"https:\/\/live.staticflickr.com\/65535\/51046031458_09b235ab56.jpg",
           "height_m":500,
           "width_m":375,
           "url_o":"https:\/\/live.staticflickr.com\/65535\/51046031458_150953ee34_o.jpg",
           "height_o":3024,
           "width_o":4032,
           "url_l":"https:\/\/live.staticflickr.com\/65535\/51046031458_09b235ab56_b.jpg",
           "height_l":1024,
           "width_l":768
        },
        {
           "id":"51046768056",
           "owner":"129426516@N03",
           "secret":"dab3632a26",
           "server":"0",
           "farm":0,
           "title":"PXL_20210314_211534533",
           "ispublic":1,
           "isfriend":0,
           "isfamily":0,
           "description":{
              "_content":"Need to bury him deeper next time"
           },
           "datetaken":"2021-03-14 16:00:00",
           "datetakengranularity":"0",
           "datetakenunknown":"0",
           "tags":"video odin snow",
           "media":"video",
           "media_status":"ready",
           "url_n":"https:\/\/live.staticflickr.com\/31337\/51046768056_dab3632a26_n.jpg",
           "height_n":180,
           "width_n":320,
           "url_m":"https:\/\/live.staticflickr.com\/31337\/51046768056_dab3632a26.jpg",
           "height_m":281,
           "width_m":500,
           "url_o":"https:\/\/live.staticflickr.com\/31337\/51046768056_47c8d27e17_o.jpg",
           "height_o":1080,
           "width_o":1920,
           "url_l":"https:\/\/live.staticflickr.com\/31337\/51046768056_dab3632a26_b.jpg",
           "height_l":576,
           "width_l":1024
        },
        {
           "id":"51046040083",
           "owner":"129426516@N03",
           "secret":"af94d08612",
           "server":"0",
           "farm":0,
           "title":"PXL_20210314_202603778",
           "ispublic":1,
           "isfriend":0,
           "isfamily":0,
           "description":{
              "_content":"Working on our snow buildings"
           },
           "datetaken":"2021-03-14 15:00:00",
           "datetakengranularity":"0",
           "datetakenunknown":"0",
           "tags":"video brokk odin snow lyssa",
           "media":"video",
           "media_status":"ready",
           "url_n":"https:\/\/live.staticflickr.com\/31337\/51046040083_af94d08612_n.jpg",
           "height_n":180,
           "width_n":320,
           "url_m":"https:\/\/live.staticflickr.com\/31337\/51046040083_af94d08612.jpg",
           "height_m":281,
           "width_m":500,
           "url_o":"https:\/\/live.staticflickr.com\/31337\/51046040083_e4b88cdd4f_o.jpg",
           "height_o":1080,
           "width_o":1920,
           "url_l":"https:\/\/live.staticflickr.com\/31337\/51046040083_af94d08612_b.jpg",
           "height_l":576,
           "width_l":1024
        },
        {
           "id":"51046857492",
           "owner":"129426516@N03",
           "secret":"23f8902d92",
           "server":"0",
           "farm":0,
           "title":"PXL_20210314_201132926",
           "ispublic":1,
           "isfriend":0,
           "isfamily":0,
           "description":{
              "_content":"Explaining our end goals"
           },
           "datetaken":"2021-03-14 14:45:00",
           "datetakengranularity":"0",
           "datetakenunknown":"0",
           "tags":"video odin snow brokk",
           "media":"video",
           "media_status":"ready",
           "url_n":"https:\/\/live.staticflickr.com\/31337\/51046857492_23f8902d92_n.jpg",
           "height_n":180,
           "width_n":320,
           "url_m":"https:\/\/live.staticflickr.com\/31337\/51046857492_23f8902d92.jpg",
           "height_m":281,
           "width_m":500,
           "url_o":"https:\/\/live.staticflickr.com\/31337\/51046857492_5bc133d4ed_o.jpg",
           "height_o":1080,
           "width_o":1920,
           "url_l":"https:\/\/live.staticflickr.com\/31337\/51046857492_23f8902d92_b.jpg",
           "height_l":576,
           "width_l":1024
        },
        {
           "id":"51046038413",
           "owner":"129426516@N03",
           "secret":"f8f9cf2ded",
           "server":"65535",
           "farm":66,
           "title":"PXL_20210314_202937511.MP",
           "ispublic":1,
           "isfriend":0,
           "isfamily":0,
           "description":{
              "_content":"Sometimes I wonder how he even sees "
           },
           "datetaken":"2021-03-14 14:29:37",
           "datetakengranularity":"0",
           "datetakenunknown":"0",
           "tags":"brokk snow",
           "media":"photo",
           "media_status":"ready",
           "url_n":"https:\/\/live.staticflickr.com\/65535\/51046038413_f8f9cf2ded_n.jpg",
           "height_n":320,
           "width_n":240,
           "url_m":"https:\/\/live.staticflickr.com\/65535\/51046038413_f8f9cf2ded.jpg",
           "height_m":500,
           "width_m":375,
           "url_o":"https:\/\/live.staticflickr.com\/65535\/51046038413_aff4d60254_o.jpg",
           "height_o":3024,
           "width_o":4032,
           "url_l":"https:\/\/live.staticflickr.com\/65535\/51046038413_f8f9cf2ded_b.jpg",
           "height_l":1024,
           "width_l":768
        },
        {
           "id":"51046847087",
           "owner":"129426516@N03",
           "secret":"6a04643b15",
           "server":"65535",
           "farm":66,
           "title":"PXL_20210314_194706731.MP",
           "ispublic":1,
           "isfriend":0,
           "isfamily":0,
           "description":{
              "_content":"Taking a quick breather"
           },
           "datetaken":"2021-03-14 13:47:06",
           "datetakengranularity":"0",
           "datetakenunknown":"0",
           "tags":"odin snow",
           "media":"photo",
           "media_status":"ready",
           "url_n":"https:\/\/live.staticflickr.com\/65535\/51046847087_6a04643b15_n.jpg",
           "height_n":320,
           "width_n":240,
           "url_m":"https:\/\/live.staticflickr.com\/65535\/51046847087_6a04643b15.jpg",
           "height_m":500,
           "width_m":375,
           "url_o":"https:\/\/live.staticflickr.com\/65535\/51046847087_14a7317d1a_o.jpg",
           "height_o":3024,
           "width_o":4032,
           "url_l":"https:\/\/live.staticflickr.com\/65535\/51046847087_6a04643b15_b.jpg",
           "height_l":1024,
           "width_l":768
        },
        {
           "id":"51046761431",
           "owner":"129426516@N03",
           "secret":"ab201ab91d",
           "server":"65535",
           "farm":66,
           "title":"PXL_20210314_194614638",
           "ispublic":1,
           "isfriend":0,
           "isfamily":0,
           "description":{
              "_content":"We needed all the help we could get with this storm."
           },
           "datetaken":"2021-03-14 13:46:14",
           "datetakengranularity":"0",
           "datetakenunknown":"0",
           "tags":"brokk snow",
           "media":"photo",
           "media_status":"ready",
           "url_n":"https:\/\/live.staticflickr.com\/65535\/51046761431_ab201ab91d_n.jpg",
           "height_n":320,
           "width_n":240,
           "url_m":"https:\/\/live.staticflickr.com\/65535\/51046761431_ab201ab91d.jpg",
           "height_m":500,
           "width_m":375,
           "url_o":"https:\/\/live.staticflickr.com\/65535\/51046761431_88d8c2ce69_o.jpg",
           "height_o":3024,
           "width_o":4032,
           "url_l":"https:\/\/live.staticflickr.com\/65535\/51046761431_ab201ab91d_b.jpg",
           "height_l":1024,
           "width_l":768
        },
        {
           "id":"51046031263",
           "owner":"129426516@N03",
           "secret":"423a86e765",
           "server":"65535",
           "farm":66,
           "title":"PXL_20210228_232027460",
           "ispublic":1,
           "isfriend":0,
           "isfamily":0,
           "description":{
              "_content":"A hipster in the making."
           },
           "datetaken":"2021-02-28 16:20:27",
           "datetakengranularity":"0",
           "datetakenunknown":"0",
           "tags":"odin",
           "media":"photo",
           "media_status":"ready",
           "url_n":"https:\/\/live.staticflickr.com\/65535\/51046031263_423a86e765_n.jpg",
           "height_n":320,
           "width_n":240,
           "url_m":"https:\/\/live.staticflickr.com\/65535\/51046031263_423a86e765.jpg",
           "height_m":500,
           "width_m":375,
           "url_o":"https:\/\/live.staticflickr.com\/65535\/51046031263_a8fa6aeac9_o.jpg",
           "height_o":4032,
           "width_o":3024,
           "url_l":"https:\/\/live.staticflickr.com\/65535\/51046031263_423a86e765_b.jpg",
           "height_l":1024,
           "width_l":768
        },
        {
           "id":"51046761356",
           "owner":"129426516@N03",
           "secret":"28a3d69d99",
           "server":"65535",
           "farm":66,
           "title":"PXL_20210225_215319191.MP",
           "ispublic":1,
           "isfriend":0,
           "isfamily":0,
           "description":{
              "_content":"Three ninjas!"
           },
           "datetaken":"2021-02-25 14:53:19",
           "datetakengranularity":"0",
           "datetakenunknown":"0",
           "tags":"brokk odin keira",
           "media":"photo",
           "media_status":"ready",
           "url_n":"https:\/\/live.staticflickr.com\/65535\/51046761356_28a3d69d99_n.jpg",
           "height_n":240,
           "width_n":320,
           "url_m":"https:\/\/live.staticflickr.com\/65535\/51046761356_28a3d69d99.jpg",
           "height_m":375,
           "width_m":500,
           "url_o":"https:\/\/live.staticflickr.com\/65535\/51046761356_2e2d0d1294_o.jpg",
           "height_o":3024,
           "width_o":4032,
           "url_l":"https:\/\/live.staticflickr.com\/65535\/51046761356_28a3d69d99_b.jpg",
           "height_l":768,
           "width_l":1024
        },
        {
           "id":"51046033658",
           "owner":"129426516@N03",
           "secret":"ce7b65efc4",
           "server":"0",
           "farm":0,
           "title":"PXL_20210225_174952643",
           "ispublic":1,
           "isfriend":0,
           "isfamily":0,
           "description":{
              "_content":"Boys put in the most work for our line - and Izzi has to take advantage. "
           },
           "datetaken":"2021-02-25 11:00:00",
           "datetakengranularity":"0",
           "datetakenunknown":"0",
           "tags":"snow video izzi lyssa brokk sledding",
           "media":"video",
           "media_status":"ready",
           "url_n":"https:\/\/live.staticflickr.com\/31337\/51046033658_ce7b65efc4_n.jpg",
           "height_n":180,
           "width_n":320,
           "url_m":"https:\/\/live.staticflickr.com\/31337\/51046033658_ce7b65efc4.jpg",
           "height_m":281,
           "width_m":500,
           "url_o":"https:\/\/live.staticflickr.com\/31337\/51046033658_27870f678e_o.jpg",
           "height_o":1080,
           "width_o":1920,
           "url_l":"https:\/\/live.staticflickr.com\/31337\/51046033658_ce7b65efc4_b.jpg",
           "height_l":576,
           "width_l":1024
        },
        {
           "id":"51046036258",
           "owner":"129426516@N03",
           "secret":"b3f718e1e5",
           "server":"0",
           "farm":0,
           "title":"PXL_20210225_163719588",
           "ispublic":1,
           "isfriend":0,
           "isfamily":0,
           "description":{
              "_content":"Great sledding snow"
           },
           "datetaken":"2021-02-25 10:30:00",
           "datetakengranularity":"0",
           "datetakenunknown":"0",
           "tags":"video brokk odin snow izzi sledding",
           "media":"video",
           "media_status":"ready",
           "url_n":"https:\/\/live.staticflickr.com\/31337\/51046036258_b3f718e1e5_n.jpg",
           "height_n":180,
           "width_n":320,
           "url_m":"https:\/\/live.staticflickr.com\/31337\/51046036258_b3f718e1e5.jpg",
           "height_m":281,
           "width_m":500,
           "url_o":"https:\/\/live.staticflickr.com\/31337\/51046036258_6eee384b6a_o.jpg",
           "height_o":1080,
           "width_o":1920,
           "url_l":"https:\/\/live.staticflickr.com\/31337\/51046036258_b3f718e1e5_b.jpg",
           "height_l":576,
           "width_l":1024
        },
        {
           "id":"51046761296",
           "owner":"129426516@N03",
           "secret":"d1e8891232",
           "server":"65535",
           "farm":66,
           "title":"PXL_20210225_164422895.PORTRAIT",
           "ispublic":1,
           "isfriend":0,
           "isfamily":0,
           "description":{
              "_content":"Who needs a hat with hair like that?"
           },
           "datetaken":"2021-02-25 09:44:22",
           "datetakengranularity":"0",
           "datetakenunknown":"0",
           "tags":"brokk snow",
           "media":"photo",
           "media_status":"ready",
           "url_n":"https:\/\/live.staticflickr.com\/65535\/51046761296_d1e8891232_n.jpg",
           "height_n":320,
           "width_n":240,
           "url_m":"https:\/\/live.staticflickr.com\/65535\/51046761296_d1e8891232.jpg",
           "height_m":500,
           "width_m":375,
           "url_o":"https:\/\/live.staticflickr.com\/65535\/51046761296_9bdb4fd0ed_o.jpg",
           "height_o":3024,
           "width_o":4032,
           "url_l":"https:\/\/live.staticflickr.com\/65535\/51046761296_d1e8891232_b.jpg",
           "height_l":1024,
           "width_l":768
        },
        {
           "id":"51046761141",
           "owner":"129426516@N03",
           "secret":"ecde92f5af",
           "server":"65535",
           "farm":66,
           "title":"PXL_20210223_223422804",
           "ispublic":1,
           "isfriend":0,
           "isfamily":0,
           "description":{
              "_content":"Some much needed shade"
           },
           "datetaken":"2021-02-23 15:34:22",
           "datetakengranularity":"0",
           "datetakenunknown":"0",
           "tags":"odin",
           "media":"photo",
           "media_status":"ready",
           "url_n":"https:\/\/live.staticflickr.com\/65535\/51046761141_ecde92f5af_n.jpg",
           "height_n":320,
           "width_n":240,
           "url_m":"https:\/\/live.staticflickr.com\/65535\/51046761141_ecde92f5af.jpg",
           "height_m":500,
           "width_m":375,
           "url_o":"https:\/\/live.staticflickr.com\/65535\/51046761141_2aca7a19c4_o.jpg",
           "height_o":4032,
           "width_o":3024,
           "url_l":"https:\/\/live.staticflickr.com\/65535\/51046761141_ecde92f5af_b.jpg",
           "height_l":1024,
           "width_l":768
        },
        {
           "id":"50973794813",
           "owner":"129426516@N03",
           "secret":"ae8d93d5e6",
           "server":"65535",
           "farm":66,
           "title":"PXL_20210221_195120091",
           "ispublic":1,
           "isfriend":0,
           "isfamily":0,
           "description":{
              "_content":"Climbing all the parts of the playground not meant for it."
           },
           "datetaken":"2021-02-21 12:51:20",
           "datetakengranularity":"0",
           "datetakenunknown":"0",
           "tags":"odin snow",
           "media":"photo",
           "media_status":"ready",
           "url_n":"https:\/\/live.staticflickr.com\/65535\/50973794813_ae8d93d5e6_n.jpg",
           "height_n":320,
           "width_n":240,
           "url_m":"https:\/\/live.staticflickr.com\/65535\/50973794813_ae8d93d5e6.jpg",
           "height_m":500,
           "width_m":375,
           "url_o":"https:\/\/live.staticflickr.com\/65535\/50973794813_da846f910a_o.jpg",
           "height_o":4032,
           "width_o":3024,
           "url_l":"https:\/\/live.staticflickr.com\/65535\/50973794813_ae8d93d5e6_b.jpg",
           "height_l":1024,
           "width_l":768
        }
     ]
  },
  "stat":"ok"
}